{
  "ErrorDetails": {
    "Error": {
      "Code": "500",
      "Type": "VALIDATION:INVALID_BOOLEAN",
      "Message": "accountsLastRunDatetime : doesnot exists, run full load from scheduler. Value was expected to be true but it was false",
      "Uuid": "9ec40300-bd32-4f42-a5e9-21ca5b933ba1"
    } 
  }
}